{"photos":{"page":1,"pages":29,"perpage":5,"total":"142","photo":[{"id":"36155994663","owner":"135188764@N04","secret":"668de89232","server":"4380","farm":5,"title":"R0015531 - dog with hat","ispublic":1,"isfriend":0,"isfamily":0},{"id":"26967112975","owner":"91210007@N06","secret":"ba2f2a75f0","server":"7668","farm":8,"title":"Hot Diggity Dog Hot Dog place","ispublic":1,"isfriend":0,"isfamily":0},{"id":"26284057513","owner":"123677698@N03","secret":"5eb0b15867","server":"7143","farm":8,"title":"Dog In The Middle","ispublic":1,"isfriend":0,"isfamily":0},{"id":"11227992813","owner":"82879511@N00","secret":"c079f40aeb","server":"3742","farm":4,"title":"Hot Dogs","ispublic":1,"isfriend":0,"isfamily":0},{"id":"8367619593","owner":"23128100@N00","secret":"9f06974095","server":"8465","farm":9,"title":"girl in tub","ispublic":1,"isfriend":0,"isfamily":0}]},"stat":"ok"}
